EESchema Schematic File Version 4
LIBS:LORA_HHT-cache
EELAYER 29 0
EELAYER END
$Descr A4 11693 8268
encoding utf-8
Sheet 1 1
Title ""
Date ""
Rev ""
Comp ""
Comment1 ""
Comment2 ""
Comment3 ""
Comment4 ""
$EndDescr
$Comp
L Connector_Generic:Conn_01x04 J2
U 1 1 5C7894BB
P 4500 1175
F 0 "J2" V 4466 887 50  0000 R CNN
F 1 "sh1101" V 4375 887 50  0000 R CNN
F 2 "MainWorking:OLED_SSD1106_1.3" H 4500 1175 50  0001 C CNN
F 3 "~" H 4500 1175 50  0001 C CNN
	1    4500 1175
	0    -1   -1   0   
$EndComp
$Comp
L Switch:SW_Push SW3
U 1 1 5C78967B
P 6825 1350
F 0 "SW3" V 6779 1498 50  0000 L CNN
F 1 "SW_Push" V 6870 1498 50  0000 L CNN
F 2 "Button_Switch_THT:SW_PUSH_6mm_H8mm" H 6825 1550 50  0001 C CNN
F 3 "" H 6825 1550 50  0001 C CNN
	1    6825 1350
	0    1    1    0   
$EndComp
$Comp
L Switch:SW_Push SW2
U 1 1 5C78983D
P 6300 1350
F 0 "SW2" V 6254 1498 50  0000 L CNN
F 1 "SW_Push" V 6345 1498 50  0000 L CNN
F 2 "Button_Switch_THT:SW_PUSH_6mm_H8mm" H 6300 1550 50  0001 C CNN
F 3 "" H 6300 1550 50  0001 C CNN
	1    6300 1350
	0    1    1    0   
$EndComp
$Comp
L Switch:SW_Push SW1
U 1 1 5C789871
P 5775 1350
F 0 "SW1" V 5729 1498 50  0000 L CNN
F 1 "SW_Push" V 5820 1498 50  0000 L CNN
F 2 "Button_Switch_THT:SW_PUSH_6mm_H8mm" H 5775 1550 50  0001 C CNN
F 3 "" H 5775 1550 50  0001 C CNN
	1    5775 1350
	0    1    1    0   
$EndComp
$Comp
L Switch:SW_Push SW4
U 1 1 5C7898B1
P 7350 1350
F 0 "SW4" V 7304 1498 50  0000 L CNN
F 1 "SW_Push" V 7395 1498 50  0000 L CNN
F 2 "Button_Switch_THT:SW_PUSH_6mm_H8mm" H 7350 1550 50  0001 C CNN
F 3 "" H 7350 1550 50  0001 C CNN
	1    7350 1350
	0    1    1    0   
$EndComp
$Comp
L Device:LED D1
U 1 1 5C789C5A
P 4350 2375
F 0 "D1" H 4350 2200 50  0000 C CNN
F 1 "LED" H 4350 2275 50  0000 C CNN
F 2 "LED_SMD:LED_0805_2012Metric" H 4350 2375 50  0001 C CNN
F 3 "~" H 4350 2375 50  0001 C CNN
	1    4350 2375
	-1   0    0    1   
$EndComp
$Comp
L Device:LED D2
U 1 1 5C789D9E
P 4350 2675
F 0 "D2" H 4350 2500 50  0000 C CNN
F 1 "LED" H 4350 2575 50  0000 C CNN
F 2 "LED_SMD:LED_0805_2012Metric" H 4350 2675 50  0001 C CNN
F 3 "~" H 4350 2675 50  0001 C CNN
	1    4350 2675
	-1   0    0    1   
$EndComp
$Comp
L Motor:Motor_DC M1
U 1 1 5C789E75
P 9825 2725
F 0 "M1" H 9983 2721 50  0000 L CNN
F 1 "Motor_DC" H 9983 2630 50  0000 L CNN
F 2 "MainWorking:Vib_Motor" H 9825 2635 50  0001 C CNN
F 3 "~" H 9825 2635 50  0001 C CNN
	1    9825 2725
	1    0    0    -1  
$EndComp
$Comp
L Transistor_BJT:MMBT3904 Q1
U 1 1 5C78A129
P 9725 3275
F 0 "Q1" H 9916 3321 50  0000 L CNN
F 1 "MMBT3904" H 9916 3230 50  0000 L CNN
F 2 "Package_TO_SOT_SMD:SOT-23" H 9925 3200 50  0001 L CIN
F 3 "https://www.fairchildsemi.com/datasheets/2N/2N3904.pdf" H 9725 3275 50  0001 L CNN
	1    9725 3275
	1    0    0    -1  
$EndComp
$Comp
L Device:R R3
U 1 1 5C78A2ED
P 9300 3275
F 0 "R3" V 9093 3275 50  0000 C CNN
F 1 "10?" V 9184 3275 50  0000 C CNN
F 2 "Resistor_SMD:R_0805_2012Metric" V 9230 3275 50  0001 C CNN
F 3 "~" H 9300 3275 50  0001 C CNN
	1    9300 3275
	0    1    1    0   
$EndComp
Wire Wire Line
	9450 3275 9525 3275
$Comp
L power:GND #PWR0101
U 1 1 5C78A3F3
P 9825 3525
F 0 "#PWR0101" H 9825 3275 50  0001 C CNN
F 1 "GND" H 9830 3352 50  0000 C CNN
F 2 "" H 9825 3525 50  0001 C CNN
F 3 "" H 9825 3525 50  0001 C CNN
	1    9825 3525
	1    0    0    -1  
$EndComp
Wire Wire Line
	9825 3525 9825 3475
Text Label 1325 1925 2    50   ~ 0
miso
Text Label 1325 2075 2    50   ~ 0
mosi
Text Label 1325 1775 2    50   ~ 0
sck
Text Label 1325 2225 2    50   ~ 0
lora_cs
Text Label 1025 1625 2    50   ~ 0
lora_rst
$Comp
L Connector:AVR-ISP-6 J4
U 1 1 5C78A8B6
P 9675 1275
F 0 "J4" H 9395 1371 50  0000 R CNN
F 1 "AVR-ISP-6" H 9395 1280 50  0000 R CNN
F 2 "Connector_PinHeader_2.54mm:PinHeader_2x03_P2.54mm_Vertical" V 9425 1325 50  0001 C CNN
F 3 " ~" H 8400 725 50  0001 C CNN
	1    9675 1275
	1    0    0    -1  
$EndComp
Text Label 10075 1075 0    50   ~ 0
miso
Text Label 10075 1175 0    50   ~ 0
mosi
Text Label 10075 1275 0    50   ~ 0
sck
Text Label 10075 1375 0    50   ~ 0
rst
$Comp
L power:GND #PWR0102
U 1 1 5C78AB45
P 9575 1675
F 0 "#PWR0102" H 9575 1425 50  0001 C CNN
F 1 "GND" H 9580 1502 50  0000 C CNN
F 2 "" H 9575 1675 50  0001 C CNN
F 3 "" H 9575 1675 50  0001 C CNN
	1    9575 1675
	1    0    0    -1  
$EndComp
$Comp
L Device:Battery BT1
U 1 1 5C78B242
P 7100 5000
F 0 "BT1" H 7125 4850 50  0000 L CNN
F 1 "Battery" H 6800 4850 50  0000 L CNN
F 2 "Pin_Headers:Pin_Header_Straight_1x02_Pitch2.00mm" V 7100 5060 50  0001 C CNN
F 3 "~" V 7100 5060 50  0001 C CNN
	1    7100 5000
	1    0    0    -1  
$EndComp
$Comp
L Battery_Management:MCP73831-2-OT U3
U 1 1 5C78B46E
P 5875 4900
F 0 "U3" H 6025 5150 50  0000 C CNN
F 1 "MCP73831-2-OT" H 5875 4250 50  0000 C CNN
F 2 "Package_TO_SOT_SMD:SOT-23-5" H 5925 4650 50  0001 L CIN
F 3 "http://ww1.microchip.com/downloads/en/DeviceDoc/20001984g.pdf" H 5725 4850 50  0001 C CNN
	1    5875 4900
	1    0    0    -1  
$EndComp
Text Label 2375 1625 0    50   ~ 0
irq
$Comp
L power:GND #PWR0104
U 1 1 5C78BDCE
P 2025 2775
F 0 "#PWR0104" H 2025 2525 50  0001 C CNN
F 1 "GND" H 2030 2602 50  0000 C CNN
F 2 "" H 2025 2775 50  0001 C CNN
F 3 "" H 2025 2775 50  0001 C CNN
	1    2025 2775
	1    0    0    -1  
$EndComp
Wire Wire Line
	2025 2775 2025 2675
Wire Wire Line
	2025 2675 1925 2675
Connection ~ 1925 2675
Wire Wire Line
	1925 2675 1825 2675
$Comp
L Device:Crystal Y1
U 1 1 5C78E3E3
P 2850 4950
F 0 "Y1" V 2850 5075 50  0000 L CNN
F 1 "8Mhz" V 2850 4850 50  0000 L CNN
F 2 "MainWorking:XTAL_SMD_Standard" H 2850 4950 50  0001 C CNN
F 3 "~" H 2850 4950 50  0001 C CNN
	1    2850 4950
	0    1    1    0   
$EndComp
Wire Wire Line
	2350 4900 2700 4900
Wire Wire Line
	2700 4900 2700 4800
Wire Wire Line
	2700 4800 2850 4800
Wire Wire Line
	2350 5000 2700 5000
Wire Wire Line
	2700 5000 2700 5100
Wire Wire Line
	2700 5100 2850 5100
$Comp
L Device:C_Small C4
U 1 1 5C78E889
P 3125 5100
F 0 "C4" V 3350 5100 50  0000 C CNN
F 1 "20pf" V 3250 5100 50  0000 C CNN
F 2 "Capacitor_SMD:C_0805_2012Metric" H 3125 5100 50  0001 C CNN
F 3 "~" H 3125 5100 50  0001 C CNN
	1    3125 5100
	0    1    1    0   
$EndComp
$Comp
L Device:C_Small C3
U 1 1 5C78E95B
P 3125 4800
F 0 "C3" V 2896 4800 50  0000 C CNN
F 1 "20pf" V 2987 4800 50  0000 C CNN
F 2 "Capacitor_SMD:C_0805_2012Metric" H 3125 4800 50  0001 C CNN
F 3 "~" H 3125 4800 50  0001 C CNN
	1    3125 4800
	0    1    1    0   
$EndComp
Wire Wire Line
	2850 4800 3025 4800
Connection ~ 2850 4800
Wire Wire Line
	2850 5100 3025 5100
Connection ~ 2850 5100
$Comp
L power:GND #PWR0106
U 1 1 5C78EFCD
P 3300 5150
F 0 "#PWR0106" H 3300 4900 50  0001 C CNN
F 1 "GND" H 3305 4977 50  0000 C CNN
F 2 "" H 3300 5150 50  0001 C CNN
F 3 "" H 3300 5150 50  0001 C CNN
	1    3300 5150
	1    0    0    -1  
$EndComp
Wire Wire Line
	3225 5100 3300 5100
Wire Wire Line
	3300 5100 3300 5150
Wire Wire Line
	3300 5100 3300 4800
Wire Wire Line
	3300 4800 3225 4800
Connection ~ 3300 5100
$Comp
L Device:C_Small C2
U 1 1 5C78FA65
P 2000 3750
F 0 "C2" V 1825 3750 50  0000 C CNN
F 1 ".1uf" V 1900 3750 50  0000 C CNN
F 2 "Capacitor_SMD:C_0805_2012Metric" H 2000 3750 50  0001 C CNN
F 3 "~" H 2000 3750 50  0001 C CNN
	1    2000 3750
	0    1    1    0   
$EndComp
$Comp
L Device:C_Small C1
U 1 1 5C78FB37
P 1600 3750
F 0 "C1" V 1425 3750 50  0000 C CNN
F 1 ".1uf" V 1500 3750 50  0000 C CNN
F 2 "Capacitor_SMD:C_0805_2012Metric" H 1600 3750 50  0001 C CNN
F 3 "~" H 1600 3750 50  0001 C CNN
	1    1600 3750
	0    1    1    0   
$EndComp
Wire Wire Line
	1700 3750 1750 3750
Connection ~ 1750 3750
Wire Wire Line
	1750 3750 1750 4000
Wire Wire Line
	1850 3575 1850 3750
Wire Wire Line
	1900 3750 1850 3750
Connection ~ 1850 3750
Wire Wire Line
	1850 3750 1850 4000
$Comp
L power:GND #PWR0109
U 1 1 5C790CE7
P 2150 3825
F 0 "#PWR0109" H 2150 3575 50  0001 C CNN
F 1 "GND" H 2155 3652 50  0000 C CNN
F 2 "" H 2150 3825 50  0001 C CNN
F 3 "" H 2150 3825 50  0001 C CNN
	1    2150 3825
	1    0    0    -1  
$EndComp
$Comp
L power:GND #PWR0110
U 1 1 5C790D29
P 1450 3825
F 0 "#PWR0110" H 1450 3575 50  0001 C CNN
F 1 "GND" H 1455 3652 50  0000 C CNN
F 2 "" H 1450 3825 50  0001 C CNN
F 3 "" H 1450 3825 50  0001 C CNN
	1    1450 3825
	1    0    0    -1  
$EndComp
Wire Wire Line
	1450 3825 1450 3750
Wire Wire Line
	1450 3750 1500 3750
Wire Wire Line
	2150 3825 2150 3750
Wire Wire Line
	2150 3750 2100 3750
$Comp
L power:GND #PWR0111
U 1 1 5C791969
P 1750 7050
F 0 "#PWR0111" H 1750 6800 50  0001 C CNN
F 1 "GND" H 1755 6877 50  0000 C CNN
F 2 "" H 1750 7050 50  0001 C CNN
F 3 "" H 1750 7050 50  0001 C CNN
	1    1750 7050
	1    0    0    -1  
$EndComp
Wire Wire Line
	1750 7050 1750 7000
Text Label 9150 3275 2    50   ~ 0
motor
Text Label 5775 1150 0    50   ~ 0
sw1
Text Label 6300 1150 0    50   ~ 0
sw2
Text Label 6825 1150 0    50   ~ 0
sw3
Text Label 7350 1150 0    50   ~ 0
sw4
$Comp
L power:GND #PWR0112
U 1 1 5C792A1E
P 7500 1625
F 0 "#PWR0112" H 7500 1375 50  0001 C CNN
F 1 "GND" H 7505 1452 50  0000 C CNN
F 2 "" H 7500 1625 50  0001 C CNN
F 3 "" H 7500 1625 50  0001 C CNN
	1    7500 1625
	1    0    0    -1  
$EndComp
Wire Wire Line
	7500 1625 7500 1550
Wire Wire Line
	7500 1550 7350 1550
Connection ~ 6300 1550
Wire Wire Line
	6300 1550 5775 1550
Connection ~ 6825 1550
Wire Wire Line
	6825 1550 6300 1550
Connection ~ 7350 1550
Wire Wire Line
	7350 1550 6825 1550
Text Label 4700 1375 3    50   ~ 0
sda
Text Label 4600 1375 3    50   ~ 0
scl
Wire Wire Line
	9825 2475 9825 2525
Text Label 4200 2375 2    50   ~ 0
led1
Text Label 4200 2675 2    50   ~ 0
led2
Text Label 2350 5400 0    50   ~ 0
lora_rst
Text Label 2350 5300 0    50   ~ 0
lora_cs
Text Label 2350 4800 0    50   ~ 0
sck
Text Label 2350 4600 0    50   ~ 0
mosi
Text Label 2350 4700 0    50   ~ 0
miso
Text Label 3025 6300 0    50   ~ 0
irq
Text Label 3225 6200 0    50   ~ 0
sw1
$Comp
L Connector_Generic:Conn_01x02 J3
U 1 1 5C795F07
P 8525 1675
F 0 "J3" H 8605 1667 50  0000 L CNN
F 1 "Serial" H 8605 1576 50  0000 L CNN
F 2 "Connector_PinHeader_2.54mm:PinHeader_1x02_P2.54mm_Vertical" H 8525 1675 50  0001 C CNN
F 3 "~" H 8525 1675 50  0001 C CNN
	1    8525 1675
	1    0    0    -1  
$EndComp
Text Label 8325 1675 2    50   ~ 0
tx
Text Label 8325 1775 2    50   ~ 0
rx
Text Label 2350 6100 0    50   ~ 0
tx
Text Label 2350 6000 0    50   ~ 0
rx
$Comp
L Device:R_Small R2
U 1 1 5C7970F5
P 7325 5250
F 0 "R2" H 7425 5300 50  0000 L CNN
F 1 "100k" H 7384 5205 50  0000 L CNN
F 2 "Resistor_SMD:R_0805_2012Metric" H 7325 5250 50  0001 C CNN
F 3 "~" H 7325 5250 50  0001 C CNN
	1    7325 5250
	1    0    0    -1  
$EndComp
$Comp
L Device:R_Small R1
U 1 1 5C7971AF
P 7325 4950
F 0 "R1" H 7400 5025 50  0000 L CNN
F 1 "100k" H 7375 4925 50  0000 L CNN
F 2 "Resistor_SMD:R_0805_2012Metric" H 7325 4950 50  0001 C CNN
F 3 "~" H 7325 4950 50  0001 C CNN
	1    7325 4950
	1    0    0    -1  
$EndComp
Text Label 7375 5125 0    50   ~ 0
chg_lvl
Text Label 1150 4500 2    50   ~ 0
chg_lvl
Text Label 2350 4400 0    50   ~ 0
led1
Text Label 2350 6600 0    50   ~ 0
sw3
Text Label 2350 6700 0    50   ~ 0
sw4
Text Label 2350 5600 0    50   ~ 0
sda
Text Label 2350 5700 0    50   ~ 0
scl
Text Label 2350 5800 0    50   ~ 0
rst
Text Label 2350 6400 0    50   ~ 0
sw2
$Comp
L Device:R_Pack04_SIP RN1
U 1 1 5C79A229
P 4875 2875
F 0 "RN1" V 4833 3080 50  0000 L CNN
F 1 "R_Pack04_SIP" V 4924 3080 50  0000 L CNN
F 2 "Resistor_SMD:R_Array_Convex_4x1206" V 5550 2875 50  0001 C CNN
F 3 "http://www.vishay.com/docs/31509/csc.pdf" H 4875 2875 50  0001 C CNN
	1    4875 2875
	0    1    1    0   
$EndComp
$Comp
L Device:LED D3
U 1 1 5C79A59A
P 4350 2975
F 0 "D3" H 4350 2800 50  0000 C CNN
F 1 "chgled" H 4350 2875 50  0000 C CNN
F 2 "LED_SMD:LED_0805_2012Metric" H 4350 2975 50  0001 C CNN
F 3 "~" H 4350 2975 50  0001 C CNN
	1    4350 2975
	-1   0    0    1   
$EndComp
$Comp
L power:GND #PWR0115
U 1 1 5C79A73B
P 4600 3500
F 0 "#PWR0115" H 4600 3250 50  0001 C CNN
F 1 "GND" H 4605 3327 50  0000 C CNN
F 2 "" H 4600 3500 50  0001 C CNN
F 3 "" H 4600 3500 50  0001 C CNN
	1    4600 3500
	1    0    0    -1  
$EndComp
Wire Wire Line
	4600 2775 4675 2775
Wire Wire Line
	4600 2775 4600 2475
Wire Wire Line
	4600 2475 4675 2475
Connection ~ 4600 2775
Wire Wire Line
	4500 2375 4675 2375
Wire Wire Line
	4675 2675 4500 2675
Wire Wire Line
	4500 2975 4675 2975
Text Label 2350 4500 0    50   ~ 0
led2
NoConn ~ 1150 4300
NoConn ~ 4675 3375
NoConn ~ 4675 3275
$Comp
L power:GND #PWR0117
U 1 1 5C79FD9D
P 4400 1425
F 0 "#PWR0117" H 4400 1175 50  0001 C CNN
F 1 "GND" H 4405 1252 50  0000 C CNN
F 2 "" H 4400 1425 50  0001 C CNN
F 3 "" H 4400 1425 50  0001 C CNN
	1    4400 1425
	1    0    0    -1  
$EndComp
Wire Wire Line
	9825 3075 9825 3025
$Comp
L Switch:SW_SPDT SW5
U 1 1 5C78DE64
P 8850 4625
F 0 "SW5" H 8850 4910 50  0000 C CNN
F 1 "power_sw" H 8850 4819 50  0000 C CNN
F 2 "Connector_PinHeader_2.54mm:PinHeader_1x03_P2.54mm_Vertical" H 8850 4625 50  0001 C CNN
F 3 "" H 8850 4625 50  0001 C CNN
	1    8850 4625
	1    0    0    -1  
$EndComp
$Comp
L LORA_HHT-rescue:ATmega328P-AU-MCU_Microchip_ATmega U2
U 1 1 5C795E9C
P 1750 5500
F 0 "U2" H 1750 3914 50  0000 C CNN
F 1 "ATmega328P-AU" H 1750 3823 50  0000 C CNN
F 2 "Package_QFP:TQFP-32_7x7mm_P0.8mm" H 1750 5500 50  0001 C CIN
F 3 "http://ww1.microchip.com/downloads/en/DeviceDoc/ATmega328_P%20AVR%20MCU%20with%20picoPower%20Technology%20Data%20Sheet%2040001984A.pdf" H 1750 5500 50  0001 C CNN
	1    1750 5500
	1    0    0    -1  
$EndComp
Text Label 2350 4300 0    50   ~ 0
motor
NoConn ~ 1150 4600
Wire Wire Line
	4400 1425 4400 1375
Wire Wire Line
	4500 1375 4500 1675
Wire Wire Line
	4500 1675 4175 1675
Wire Wire Line
	4175 1675 4175 1250
Wire Wire Line
	4600 2775 4600 3500
Text Label 4200 3075 2    50   ~ 0
stat
Wire Wire Line
	4200 3075 4675 3075
Text Label 6275 5000 0    50   ~ 0
stat
$Comp
L power:VBUS #PWR0108
U 1 1 5C7AF93E
P 3850 2850
F 0 "#PWR0108" H 3850 2700 50  0001 C CNN
F 1 "VBUS" H 3865 3023 50  0000 C CNN
F 2 "" H 3850 2850 50  0001 C CNN
F 3 "" H 3850 2850 50  0001 C CNN
	1    3850 2850
	1    0    0    -1  
$EndComp
Wire Wire Line
	3850 2850 3850 2975
Wire Wire Line
	3850 2975 4200 2975
$Comp
L power:VBUS #PWR0118
U 1 1 5C7B04F5
P 5875 4475
F 0 "#PWR0118" H 5875 4325 50  0001 C CNN
F 1 "VBUS" H 5890 4648 50  0000 C CNN
F 2 "" H 5875 4475 50  0001 C CNN
F 3 "" H 5875 4475 50  0001 C CNN
	1    5875 4475
	1    0    0    -1  
$EndComp
$Comp
L Device:R R4
U 1 1 5C7B0681
P 5275 5000
F 0 "R4" V 5150 5000 50  0000 C CNN
F 1 "2k" V 5275 5000 50  0000 C CNN
F 2 "Resistor_SMD:R_0805_2012Metric" V 5205 5000 50  0001 C CNN
F 3 "~" H 5275 5000 50  0001 C CNN
	1    5275 5000
	0    1    1    0   
$EndComp
$Comp
L Device:C C5
U 1 1 5C7B073C
P 6600 4950
F 0 "C5" H 6715 4996 50  0000 L CNN
F 1 "4.7uf" H 6715 4905 50  0000 L CNN
F 2 "Capacitor_SMD:C_0805_2012Metric" H 6638 4800 50  0001 C CNN
F 3 "~" H 6600 4950 50  0001 C CNN
	1    6600 4950
	1    0    0    -1  
$EndComp
Wire Wire Line
	1750 3575 1775 3575
Wire Wire Line
	1750 3575 1750 3750
Wire Wire Line
	6600 4800 6275 4800
Wire Wire Line
	5875 5200 6600 5200
Wire Wire Line
	6600 5200 6600 5100
Wire Wire Line
	5125 5000 5125 5200
Wire Wire Line
	5125 5200 5875 5200
Connection ~ 5875 5200
$Comp
L power:GND #PWR0120
U 1 1 5C7B65A3
P 5875 5275
F 0 "#PWR0120" H 5875 5025 50  0001 C CNN
F 1 "GND" H 5880 5102 50  0000 C CNN
F 2 "" H 5875 5275 50  0001 C CNN
F 3 "" H 5875 5275 50  0001 C CNN
	1    5875 5275
	1    0    0    -1  
$EndComp
Wire Wire Line
	5875 5275 5875 5200
Connection ~ 6600 4800
Wire Wire Line
	5425 5000 5475 5000
Wire Wire Line
	1775 1175 1775 1225
$Comp
L Device:CP1_Small C6
U 1 1 5C81B1A7
P 5575 4475
F 0 "C6" V 5347 4475 50  0000 C CNN
F 1 "4.7uf" V 5438 4475 50  0000 C CNN
F 2 "Capacitor_SMD:C_0805_2012Metric" H 5575 4475 50  0001 C CNN
F 3 "~" H 5575 4475 50  0001 C CNN
	1    5575 4475
	0    1    1    0   
$EndComp
Wire Wire Line
	5875 4475 5875 4600
Wire Wire Line
	5675 4475 5875 4475
Connection ~ 5875 4475
$Comp
L power:GND #PWR0105
U 1 1 5C81E1B1
P 5425 4525
F 0 "#PWR0105" H 5425 4275 50  0001 C CNN
F 1 "GND" H 5430 4352 50  0000 C CNN
F 2 "" H 5425 4525 50  0001 C CNN
F 3 "" H 5425 4525 50  0001 C CNN
	1    5425 4525
	1    0    0    -1  
$EndComp
Wire Wire Line
	5425 4525 5425 4475
Wire Wire Line
	5425 4475 5475 4475
$Comp
L Device:Q_PMOS_DGS Q2
U 1 1 5C823063
P 7625 4425
F 0 "Q2" V 7875 4425 50  0000 C CNN
F 1 "Q_PMOS_DGS" V 7966 4425 50  0000 C CNN
F 2 "Package_TO_SOT_SMD:SOT-23" H 7825 4525 50  0001 C CNN
F 3 "~" H 7625 4425 50  0001 C CNN
	1    7625 4425
	0    -1   1    0   
$EndComp
$Comp
L Device:R R5
U 1 1 5C824AF3
P 7475 4125
F 0 "R5" V 7400 4125 50  0000 C CNN
F 1 "100k" V 7475 4125 50  0000 C CNN
F 2 "Resistor_SMD:R_0805_2012Metric" V 7405 4125 50  0001 C CNN
F 3 "~" H 7475 4125 50  0001 C CNN
	1    7475 4125
	0    1    1    0   
$EndComp
$Comp
L Device:D_Schottky D4
U 1 1 5C8280BB
P 8050 4175
F 0 "D4" V 8096 4096 50  0000 R CNN
F 1 "D_Schottky" V 8000 4075 50  0000 R CNN
F 2 "Diode_SMD:D_SOD-123" H 8050 4175 50  0001 C CNN
F 3 "~" H 8050 4175 50  0001 C CNN
	1    8050 4175
	0    -1   -1   0   
$EndComp
Wire Wire Line
	7100 5200 6600 5200
Connection ~ 6600 5200
Wire Wire Line
	6600 4800 7100 4800
Wire Wire Line
	1775 3375 1775 3575
Connection ~ 1775 3575
Wire Wire Line
	1775 3575 1850 3575
Wire Wire Line
	7625 3900 7825 3900
Wire Wire Line
	8050 3900 8050 4025
Wire Wire Line
	9050 4525 9275 4525
Wire Wire Line
	7100 4800 7100 4525
Wire Wire Line
	7100 4525 7325 4525
Connection ~ 7100 4800
$Comp
L power:VBUS #PWR0107
U 1 1 5C849335
P 7825 3850
F 0 "#PWR0107" H 7825 3700 50  0001 C CNN
F 1 "VBUS" H 7840 4023 50  0000 C CNN
F 2 "" H 7825 3850 50  0001 C CNN
F 3 "" H 7825 3850 50  0001 C CNN
	1    7825 3850
	1    0    0    -1  
$EndComp
Wire Wire Line
	7825 3850 7825 3900
Connection ~ 7825 3900
Wire Wire Line
	7825 3900 8050 3900
$Comp
L Regulator_Linear:TLV75533PDBV U4
U 1 1 5C84B490
P 9850 4625
F 0 "U4" H 9850 4967 50  0000 C CNN
F 1 "TLV75533PDBV" H 9850 4876 50  0000 C CNN
F 2 "Package_TO_SOT_SMD:SOT-23-5" H 9850 4925 50  0001 C CIN
F 3 "http://www.ti.com/lit/ds/symlink/tlv755p.pdf" H 9850 4625 50  0001 C CNN
	1    9850 4625
	1    0    0    -1  
$EndComp
Wire Wire Line
	9550 4525 9425 4525
Connection ~ 9275 4525
Wire Wire Line
	9550 4625 9425 4625
Wire Wire Line
	9425 4625 9425 4525
Connection ~ 9425 4525
Wire Wire Line
	9425 4525 9275 4525
$Comp
L power:GND #PWR0113
U 1 1 5C84F7C8
P 9850 5225
F 0 "#PWR0113" H 9850 4975 50  0001 C CNN
F 1 "GND" H 9855 5052 50  0000 C CNN
F 2 "" H 9850 5225 50  0001 C CNN
F 3 "" H 9850 5225 50  0001 C CNN
	1    9850 5225
	1    0    0    -1  
$EndComp
$Comp
L power:+3.3V #PWR0114
U 1 1 5C84F8C3
P 10250 4475
F 0 "#PWR0114" H 10250 4325 50  0001 C CNN
F 1 "+3.3V" H 10265 4648 50  0000 C CNN
F 2 "" H 10250 4475 50  0001 C CNN
F 3 "" H 10250 4475 50  0001 C CNN
	1    10250 4475
	1    0    0    -1  
$EndComp
Wire Wire Line
	10250 4475 10250 4525
Wire Wire Line
	10250 4525 10150 4525
$Comp
L Device:C C7
U 1 1 5C851C20
P 9275 4825
F 0 "C7" H 9390 4871 50  0000 L CNN
F 1 "4.7uf" H 9390 4780 50  0000 L CNN
F 2 "Capacitor_SMD:C_0805_2012Metric" H 9313 4675 50  0001 C CNN
F 3 "~" H 9275 4825 50  0001 C CNN
	1    9275 4825
	1    0    0    -1  
$EndComp
Wire Wire Line
	9850 4925 9850 5100
Wire Wire Line
	9850 5100 9275 5100
Wire Wire Line
	9275 5100 9275 4975
Connection ~ 9850 5100
Wire Wire Line
	9850 5100 9850 5225
Wire Wire Line
	9275 4675 9275 4525
$Comp
L Device:C C8
U 1 1 5C858BFC
P 10250 4825
F 0 "C8" H 10365 4871 50  0000 L CNN
F 1 "1uf" H 10365 4780 50  0000 L CNN
F 2 "Capacitor_SMD:C_0805_2012Metric" H 10288 4675 50  0001 C CNN
F 3 "~" H 10250 4825 50  0001 C CNN
	1    10250 4825
	1    0    0    -1  
$EndComp
Wire Wire Line
	10250 4675 10250 4525
Connection ~ 10250 4525
Wire Wire Line
	10250 4975 10250 5100
Wire Wire Line
	10250 5100 9850 5100
Wire Wire Line
	7625 3900 7625 4125
Connection ~ 7625 4125
Wire Wire Line
	7625 4125 7625 4225
$Comp
L power:GND #PWR0116
U 1 1 5C86050E
P 7275 4225
F 0 "#PWR0116" H 7275 3975 50  0001 C CNN
F 1 "GND" H 7280 4052 50  0000 C CNN
F 2 "" H 7275 4225 50  0001 C CNN
F 3 "" H 7275 4225 50  0001 C CNN
	1    7275 4225
	1    0    0    -1  
$EndComp
Wire Wire Line
	7275 4225 7275 4125
Wire Wire Line
	7275 4125 7325 4125
$Comp
L power:+3.3V #PWR0119
U 1 1 5C863188
P 1775 3375
F 0 "#PWR0119" H 1775 3225 50  0001 C CNN
F 1 "+3.3V" H 1790 3548 50  0000 C CNN
F 2 "" H 1775 3375 50  0001 C CNN
F 3 "" H 1775 3375 50  0001 C CNN
	1    1775 3375
	1    0    0    -1  
$EndComp
$Comp
L power:+3.3V #PWR0121
U 1 1 5C8631DD
P 1775 1175
F 0 "#PWR0121" H 1775 1025 50  0001 C CNN
F 1 "+3.3V" H 1790 1348 50  0000 C CNN
F 2 "" H 1775 1175 50  0001 C CNN
F 3 "" H 1775 1175 50  0001 C CNN
	1    1775 1175
	1    0    0    -1  
$EndComp
$Comp
L power:+3.3V #PWR0123
U 1 1 5C863713
P 9575 775
F 0 "#PWR0123" H 9575 625 50  0001 C CNN
F 1 "+3.3V" H 9590 948 50  0000 C CNN
F 2 "" H 9575 775 50  0001 C CNN
F 3 "" H 9575 775 50  0001 C CNN
	1    9575 775 
	1    0    0    -1  
$EndComp
$Comp
L power:+3.3V #PWR0124
U 1 1 5C863DA5
P 4175 1250
F 0 "#PWR0124" H 4175 1100 50  0001 C CNN
F 1 "+3.3V" H 4190 1423 50  0000 C CNN
F 2 "" H 4175 1250 50  0001 C CNN
F 3 "" H 4175 1250 50  0001 C CNN
	1    4175 1250
	1    0    0    -1  
$EndComp
Wire Wire Line
	7375 5125 7325 5125
Wire Wire Line
	7325 5125 7325 5150
Wire Wire Line
	7325 5125 7325 5050
Connection ~ 7325 5125
Wire Wire Line
	7325 4850 7325 4525
Connection ~ 7325 4525
Wire Wire Line
	7325 4525 7425 4525
$Comp
L power:GND #PWR0125
U 1 1 5C86C998
P 7325 5400
F 0 "#PWR0125" H 7325 5150 50  0001 C CNN
F 1 "GND" H 7330 5227 50  0000 C CNN
F 2 "" H 7325 5400 50  0001 C CNN
F 3 "" H 7325 5400 50  0001 C CNN
	1    7325 5400
	1    0    0    -1  
$EndComp
Wire Wire Line
	7325 5400 7325 5350
Wire Wire Line
	8650 4625 8050 4625
Wire Wire Line
	8050 4625 8050 4525
Wire Wire Line
	7825 4525 8050 4525
Connection ~ 8050 4525
Wire Wire Line
	8050 4525 8050 4325
NoConn ~ 9050 4725
$Comp
L Mechanical:MountingHole H4
U 1 1 5C820825
P 10450 6400
F 0 "H4" H 10550 6446 50  0000 L CNN
F 1 "MountingHole" H 10550 6355 50  0000 L CNN
F 2 "MountingHole:MountingHole_2.5mm" H 10450 6400 50  0001 C CNN
F 3 "~" H 10450 6400 50  0001 C CNN
	1    10450 6400
	1    0    0    -1  
$EndComp
$Comp
L Mechanical:MountingHole H3
U 1 1 5C820A8B
P 10450 6225
F 0 "H3" H 10550 6271 50  0000 L CNN
F 1 "MountingHole" H 10550 6180 50  0000 L CNN
F 2 "MountingHole:MountingHole_2.5mm" H 10450 6225 50  0001 C CNN
F 3 "~" H 10450 6225 50  0001 C CNN
	1    10450 6225
	1    0    0    -1  
$EndComp
$Comp
L Mechanical:MountingHole H2
U 1 1 5C820AF5
P 10450 6050
F 0 "H2" H 10550 6096 50  0000 L CNN
F 1 "MountingHole" H 10550 6005 50  0000 L CNN
F 2 "MountingHole:MountingHole_2.5mm" H 10450 6050 50  0001 C CNN
F 3 "~" H 10450 6050 50  0001 C CNN
	1    10450 6050
	1    0    0    -1  
$EndComp
$Comp
L Mechanical:MountingHole H1
U 1 1 5C820BC1
P 10450 5875
F 0 "H1" H 10550 5921 50  0000 L CNN
F 1 "MountingHole" H 10550 5830 50  0000 L CNN
F 2 "MountingHole:MountingHole_2.5mm" H 10450 5875 50  0001 C CNN
F 3 "~" H 10450 5875 50  0001 C CNN
	1    10450 5875
	1    0    0    -1  
$EndComp
Text Notes 7375 3575 0    70   ~ 0
Load sharing charger\n
$Comp
L MainWorking:LoRa_Ra-02 U1
U 1 1 5C914A40
P 1825 925
F 0 "U1" H 2050 575 50  0000 C CNN
F 1 "LoRa_Ra-02" H 2050 475 50  0000 C CNN
F 2 "MainWorking:LORA_SX1278_Module" H 1825 925 50  0001 C CNN
F 3 "" H 1825 925 50  0001 C CNN
	1    1825 925 
	1    0    0    -1  
$EndComp
NoConn ~ 2375 1725
NoConn ~ 2375 1825
NoConn ~ 2375 1925
NoConn ~ 2375 2025
NoConn ~ 2375 2125
Connection ~ 1725 2675
Wire Wire Line
	1725 2675 1625 2675
Connection ~ 1825 2675
Wire Wire Line
	1825 2675 1725 2675
$Comp
L power:VDD #PWR0122
U 1 1 5C91903B
P 9275 4425
F 0 "#PWR0122" H 9275 4275 50  0001 C CNN
F 1 "VDD" H 9292 4598 50  0000 C CNN
F 2 "" H 9275 4425 50  0001 C CNN
F 3 "" H 9275 4425 50  0001 C CNN
	1    9275 4425
	1    0    0    -1  
$EndComp
Wire Wire Line
	9275 4425 9275 4525
$Comp
L power:VDD #PWR0126
U 1 1 5C91B8CF
P 9825 2475
F 0 "#PWR0126" H 9825 2325 50  0001 C CNN
F 1 "VDD" H 9842 2648 50  0000 C CNN
F 2 "" H 9825 2475 50  0001 C CNN
F 3 "" H 9825 2475 50  0001 C CNN
	1    9825 2475
	1    0    0    -1  
$EndComp
$Comp
L Connector:USB_B_Micro J1
U 1 1 5C95B9D5
P 8525 2725
F 0 "J1" H 8580 3192 50  0000 C CNN
F 1 "USB_B_Micro" H 8580 3101 50  0000 C CNN
F 2 "Connector_USB:USB_Mini-B_Lumberg_2486_01_Horizontal" H 8675 2675 50  0001 C CNN
F 3 "~" H 8675 2675 50  0001 C CNN
	1    8525 2725
	1    0    0    -1  
$EndComp
$Comp
L power:VBUS #PWR0127
U 1 1 5C95BC41
P 8950 2450
F 0 "#PWR0127" H 8950 2300 50  0001 C CNN
F 1 "VBUS" H 8965 2623 50  0000 C CNN
F 2 "" H 8950 2450 50  0001 C CNN
F 3 "" H 8950 2450 50  0001 C CNN
	1    8950 2450
	1    0    0    -1  
$EndComp
Wire Wire Line
	8950 2450 8950 2525
Wire Wire Line
	8950 2525 8825 2525
$Comp
L power:GND #PWR0128
U 1 1 5C95E797
P 8525 3175
F 0 "#PWR0128" H 8525 2925 50  0001 C CNN
F 1 "GND" H 8530 3002 50  0000 C CNN
F 2 "" H 8525 3175 50  0001 C CNN
F 3 "" H 8525 3175 50  0001 C CNN
	1    8525 3175
	1    0    0    -1  
$EndComp
Wire Wire Line
	8525 3175 8525 3125
Wire Wire Line
	8525 3125 8425 3125
Connection ~ 8525 3125
NoConn ~ 8825 2925
NoConn ~ 8825 2825
NoConn ~ 8825 2725
Text Label 2350 5200 0    50   ~ 0
stat
$Comp
L Device:R R7
U 1 1 5C99ADE8
P 10375 1875
F 0 "R7" V 10168 1875 50  0000 C CNN
F 1 "10k" V 10259 1875 50  0000 C CNN
F 2 "Resistor_SMD:R_0805_2012Metric" V 10305 1875 50  0001 C CNN
F 3 "~" H 10375 1875 50  0001 C CNN
	1    10375 1875
	0    1    1    0   
$EndComp
Text Label 10225 1875 2    50   ~ 0
rst
$Comp
L Device:C C9
U 1 1 5C99B006
P 10575 2025
F 0 "C9" H 10690 2071 50  0000 L CNN
F 1 ".1uf" H 10690 1980 50  0000 L CNN
F 2 "Capacitor_SMD:C_0805_2012Metric" H 10613 1875 50  0001 C CNN
F 3 "~" H 10575 2025 50  0001 C CNN
	1    10575 2025
	1    0    0    -1  
$EndComp
$Comp
L Device:C C10
U 1 1 5C99B138
P 10875 2025
F 0 "C10" H 10990 2071 50  0000 L CNN
F 1 "1uf" H 10990 1980 50  0000 L CNN
F 2 "Capacitor_SMD:C_0805_2012Metric" H 10913 1875 50  0001 C CNN
F 3 "~" H 10875 2025 50  0001 C CNN
	1    10875 2025
	1    0    0    -1  
$EndComp
$Comp
L power:+3.3V #PWR0103
U 1 1 5C99B2CE
P 10950 1700
F 0 "#PWR0103" H 10950 1550 50  0001 C CNN
F 1 "+3.3V" H 10965 1873 50  0000 C CNN
F 2 "" H 10950 1700 50  0001 C CNN
F 3 "" H 10950 1700 50  0001 C CNN
	1    10950 1700
	1    0    0    -1  
$EndComp
Wire Wire Line
	10950 1700 10950 1875
Wire Wire Line
	10950 1875 10875 1875
Connection ~ 10575 1875
Wire Wire Line
	10575 1875 10525 1875
Connection ~ 10875 1875
Wire Wire Line
	10875 1875 10575 1875
$Comp
L power:GND #PWR0129
U 1 1 5C99DFD6
P 10575 2250
F 0 "#PWR0129" H 10575 2000 50  0001 C CNN
F 1 "GND" H 10580 2077 50  0000 C CNN
F 2 "" H 10575 2250 50  0001 C CNN
F 3 "" H 10575 2250 50  0001 C CNN
	1    10575 2250
	1    0    0    -1  
$EndComp
Wire Wire Line
	10575 2250 10575 2175
Wire Wire Line
	10575 2175 10875 2175
Connection ~ 10575 2175
$Comp
L Device:R R6
U 1 1 5C9A40E6
P 1200 1450
F 0 "R6" H 1270 1496 50  0000 L CNN
F 1 "10k" H 1270 1405 50  0000 L CNN
F 2 "Resistor_SMD:R_0805_2012Metric" V 1130 1450 50  0001 C CNN
F 3 "~" H 1200 1450 50  0001 C CNN
	1    1200 1450
	1    0    0    -1  
$EndComp
Wire Wire Line
	1025 1625 1200 1625
Wire Wire Line
	1200 1600 1200 1625
Connection ~ 1200 1625
Wire Wire Line
	1200 1625 1325 1625
Wire Wire Line
	1775 1225 1200 1225
Wire Wire Line
	1200 1225 1200 1300
Connection ~ 1775 1225
Wire Wire Line
	1775 1225 1775 1275
$Comp
L Device:C_Small C11
U 1 1 5C9DB562
P 2875 6400
F 0 "C11" H 2967 6446 50  0000 L CNN
F 1 ".1uf" H 2967 6355 50  0000 L CNN
F 2 "Capacitor_SMD:C_0805_2012Metric" H 2875 6400 50  0001 C CNN
F 3 "~" H 2875 6400 50  0001 C CNN
	1    2875 6400
	1    0    0    -1  
$EndComp
Wire Wire Line
	3025 6300 2875 6300
Connection ~ 2875 6300
Wire Wire Line
	2875 6300 2350 6300
$Comp
L Device:C_Small C12
U 1 1 5C9DEF0C
P 3200 6300
F 0 "C12" H 3292 6346 50  0000 L CNN
F 1 ".1uf" H 3292 6255 50  0000 L CNN
F 2 "Capacitor_SMD:C_0805_2012Metric" H 3200 6300 50  0001 C CNN
F 3 "~" H 3200 6300 50  0001 C CNN
	1    3200 6300
	1    0    0    -1  
$EndComp
Wire Wire Line
	3225 6200 3200 6200
Connection ~ 3200 6200
Wire Wire Line
	3200 6200 2350 6200
$Comp
L power:GND #PWR0130
U 1 1 5C9E2CA9
P 2875 6500
F 0 "#PWR0130" H 2875 6250 50  0001 C CNN
F 1 "GND" H 2880 6327 50  0000 C CNN
F 2 "" H 2875 6500 50  0001 C CNN
F 3 "" H 2875 6500 50  0001 C CNN
	1    2875 6500
	1    0    0    -1  
$EndComp
$Comp
L power:GND #PWR0131
U 1 1 5C9E2D9A
P 3200 6400
F 0 "#PWR0131" H 3200 6150 50  0001 C CNN
F 1 "GND" H 3205 6227 50  0000 C CNN
F 2 "" H 3200 6400 50  0001 C CNN
F 3 "" H 3200 6400 50  0001 C CNN
	1    3200 6400
	1    0    0    -1  
$EndComp
Wire Wire Line
	6475 2750 6475 2475
$Comp
L power:GND #PWR0134
U 1 1 5CAD5CA9
P 6475 3150
F 0 "#PWR0134" H 6475 2900 50  0001 C CNN
F 1 "GND" H 6480 2977 50  0000 C CNN
F 2 "" H 6475 3150 50  0001 C CNN
F 3 "" H 6475 3150 50  0001 C CNN
	1    6475 3150
	1    0    0    -1  
$EndComp
Text Label 6475 2375 2    50   ~ 0
beeper
Text Label 2350 6500 0    50   ~ 0
beeper
$Comp
L Device:Speaker LS1
U 1 1 5CACB77D
P 6675 2375
F 0 "LS1" H 6845 2371 50  0000 L CNN
F 1 "Speaker" H 6845 2280 50  0000 L CNN
F 2 "Buzzer_Beeper:Buzzer_TDK_PS1240P02BT_D12.2mm_H6.5mm" H 6675 2175 50  0001 C CNN
F 3 "~" H 6665 2325 50  0001 C CNN
	1    6675 2375
	1    0    0    -1  
$EndComp
$Comp
L Device:R R8
U 1 1 5CC11482
P 6475 2900
F 0 "R8" H 6545 2946 50  0000 L CNN
F 1 "100" H 6545 2855 50  0000 L CNN
F 2 "Resistor_SMD:R_0805_2012Metric" V 6405 2900 50  0001 C CNN
F 3 "~" H 6475 2900 50  0001 C CNN
	1    6475 2900
	1    0    0    -1  
$EndComp
Wire Wire Line
	6475 3150 6475 3050
Text Label 2350 5500 0    50   ~ 0
sw5
$Comp
L Switch:SW_Push SW5
U 1 1 5CF687E4
P 7925 1325
F 0 "SW5" V 7879 1473 50  0000 L CNN
F 1 "SW_Push" V 7970 1473 50  0000 L CNN
F 2 "Button_Switch_THT:SW_PUSH_6mm_H8mm" H 7925 1525 50  0001 C CNN
F 3 "" H 7925 1525 50  0001 C CNN
	1    7925 1325
	0    1    1    0   
$EndComp
Text Label 7925 1125 0    50   ~ 0
sw5
Wire Wire Line
	7500 1550 7925 1550
Wire Wire Line
	7925 1550 7925 1525
Connection ~ 7500 1550
$EndSCHEMATC
